 <div style='left:300px;bottom:100px;width:70%'></div>
 <div style='left:400px;bottom:150px;width:65%'></div>
 <div style='left:500px;bottom:200px;width:60%'></div>
 <div style='left:700px;bottom:280px;width:55%'></div>